Probability — Lecture Notes
…
d1 <- d0 %>% dplyr::select(3:5)
names(d1) <- c("subs", "view", "count")

Rows: 300 Columns: 7

-- Column specification ------------------------------------------------------------------------------------------------------------------------------------
Delimiter: ","
chr (2): Youtuber, category
dbl (2): rank, started

i Use `spec()` to retrieve the full column specification for this data.
i Specify the column types or set `show_col_types = FALSE` to quiet this message.

# A tibble: 300 x 7
    rank Youtuber       subscribers `video views` `video count` category started
   <dbl> <chr>                <dbl>         <dbl>         <dbl> <chr>      <dbl>
 1     1 Shadow MusicS~     7690000    3665970114          1144 People ~    2017
 2     2 Emi WongEmi W~     4870000     607656993           390 People ~    2014
 3     3 iQIYI <U+7231><U+5947><U+827A>i~     4010000    1744552001          9740 Film & ~    2015
 4     4 South China M~     2650000    2612265071         11376 News & ~    2007
 5     5 GEM<U+9127><U+7D2B><U+68CB>GEM~      2520000    1752111944            77 People ~    2019
 6     6 Ani-One<U+52D5><U+6F2B><U+5C08>~     2020000     238959467          2026 Film & ~    2016
 7     7 <U+860B><U+679C><U+52D5><U+65B0><U+805E> HK~     1880000    1580438690         70586 News & ~    2007
 8     8 Nikmatul Rosi~     1590000     384841124          1697 People ~    2013
 9     9 Kento BentoKe~     1580000     137410428            38 Educati~    2015
10    10 ApronApron         1520000     182803329           346 Howto &~    2012
# ... with 290 more rows
…
